…
**The contributors of this package do not hold any copyright on the
data. Please give credit to the sources listed on the preview table.**

## Usage

The `geostatsimage` function takes an image *name* and returns a
geotable. Please run `GeoStatsImages.available()` to discover all
available image names.

```julia
julia> geostatsimage("WalkerLake")
                 78000×2 GeoTable over 260×300 CartesianGrid
┌─────────────┬─────────────────────────────────────────────────────────────┐
│    value    │                          geometry                           │
│ Continuous  │                         Quadrangle                          │
│  [NoUnits]  │                    🖈 Cartesian{NoDatum}                     │
├─────────────┼─────────────────────────────────────────────────────────────┤
│     0.0     │ Quadrangle((x: 0.0 m, y: 0.0 m), ..., (x: 0.0 m, y: 1.0 m)) │
│ 1.28207e-5  │ Quadrangle((x: 1.0 m, y: 0.0 m), ..., (x: 1.0 m, y: 1.0 m)) │
│ 2.56414e-5  │ Quadrangle((x: 2.0 m, y: 0.0 m), ..., (x: 2.0 m, y: 1.0 m)) │
│  3.8462e-5  │ Quadrangle((x: 3.0 m, y: 0.0 m), ..., (x: 3.0 m, y: 1.0 m)) │
│ 5.12827e-5  │ Quadrangle((x: 4.0 m, y: 0.0 m), ..., (x: 4.0 m, y: 1.0 m)) │
│ 6.41034e-5  │ Quadrangle((x: 5.0 m, y: 0.0 m), ..., (x: 5.0 m, y: 1.0 m)) │
│ 7.69241e-5  │ Quadrangle((x: 6.0 m, y: 0.0 m), ..., (x: 6.0 m, y: 1.0 m)) │
│ 8.97447e-5  │ Quadrangle((x: 7.0 m, y: 0.0 m), ..., (x: 7.0 m, y: 1.0 m)) │
│ 0.000102565 │ Quadrangle((x: 8.0 m, y: 0.0 m), ..., (x: 8.0 m, y: 1.0 m)) │
│ 0.000115386 │ Quadrangle((x: 9.0 m, y: 0.0 m), ..., (x: 9.0 m, y: 1.0 m)) │
│      ⋮      │                              ⋮                              │
└─────────────┴─────────────────────────────────────────────────────────────┘
                                                           77990 rows omitted
```
…
